{
	"credit": "Made with Blockbench",
	"textures": {
		"1": "tardis:blocks/sea_lantern",
		"2": "tardis:blocks/oxygen_sealer",
		"particle": "tardis:blocks/oxygen_sealer"
	},
	"elements": [
		{
			"from": [7.25, 2, 7.25],
			"to": [8.75, 11, 8.75],
			"rotation": {"angle": 0, "axis": "y", "origin": [8, 7, 8]},
			"faces": {
				"north": {"uv": [6, 1, 10, 15], "texture": "#1"},
				"east": {"uv": [6, 1, 10, 15], "texture": "#1"},
				"south": {"uv": [6, 1, 10, 15], "texture": "#1"},
				"west": {"uv": [6, 1, 10, 15], "texture": "#1"},
				"up": {"uv": [0, 0, 1, 1], "texture": "#1"},
				"down": {"uv": [0, 0, 1, 1], "texture": "#1"}
			}
		},
		{
			"from": [6.875, 0, 6.875],
			"to": [9.125, 2, 9.125],
			"faces": {
				"north": {"uv": [2, 6, 14, 14], "texture": "#2"},
				"east": {"uv": [2, 6, 14, 14], "texture": "#2"},
				"south": {"uv": [2, 6, 14, 14], "texture": "#2"},
				"west": {"uv": [2, 6, 14, 14], "texture": "#2"},
				"up": {"uv": [12, 12, 15, 15], "texture": "#2"},
				"down": {"uv": [12, 12, 15, 15], "texture": "#2"}
			}
		},
		{
			"from": [6.875, 11, 6.875],
			"to": [9.125, 12, 9.125],
			"rotation": {"angle": 0, "axis": "y", "origin": [8, 19, 8]},
			"faces": {
				"north": {"uv": [2, 6, 14, 10], "texture": "#2"},
				"east": {"uv": [2, 6, 14, 10], "texture": "#2"},
				"south": {"uv": [2, 6, 14, 10], "texture": "#2"},
				"west": {"uv": [2, 6, 14, 10], "texture": "#2"},
				"up": {"uv": [12, 12, 15, 15], "texture": "#2"},
				"down": {"uv": [12, 12, 15, 15], "texture": "#2"}
			}
		}
	],
	"display": {
		"thirdperson_righthand": {
			"translation": [0, 3.5, 0],
			"scale": [0.5, 0.5, 0.5]
		},
		"thirdperson_lefthand": {
			"translation": [0, 3.5, 0],
			"scale": [0.5, 0.5, 0.5]
		},
		"firstperson_righthand": {
			"translation": [0, 4.75, 0],
			"scale": [0.75, 0.75, 0.75]
		},
		"firstperson_lefthand": {
			"translation": [0, 4.75, 0],
			"scale": [0.75, 0.75, 0.75]
		},
		"ground": {
			"scale": [0.5, 0.5, 0.5]
		},
		"gui": {
			"rotation": [30, -135, 0],
			"translation": [0, 2, 0]
		},
		"fixed": {
			"translation": [0, 2.25, 0]
		}
	},
	"groups": [
		{
			"name": "group",
			"origin": [8, 8, 8],
			"children": [0, 1, 2]
		}
	]
}