{
    "parent": "block/slab_top",
  "textures": {
    "bottom": "tardis:blocks/technology/tungsten_pattern",
    "top": "tardis:blocks/technology/tungsten_pattern",
    "side": "tardis:blocks/technology/tungsten_pattern"
  }
}
