{
  "variants": {
    "facing=north": {
      "model": "tardis:block/wirebox",
      "y": 0
    },
    "facing=east": {
      "model": "tardis:block/wirebox",
      "y": 90
    },
    "facing=south": {
      "model": "tardis:block/wirebox",
      "y": 180
    },
    "facing=west": {
      "model": "tardis:block/wirebox",
      "y": 270
    }
  }
}