{
	"type": "tardis:quantiscope",
	"repair":false,
	"ingredients":[
		{"item":"tardis:circuits"},
		{"item":"minecraft:shield"},
		{"item":"minecraft:golden_apple"},
		{"item":"minecraft:redstone_block"}
	],
	"result":{
		"item":"tardis:subsystem/temporal_grace"
	}
}