{
	"type": "tardis:quantiscope",
	"repair":false,
	"ingredients":[
		{"item":"tardis:mercury_bottle"},
		{"item":"minecraft:gold_ingot"},
		{"item":"minecraft:redstone_block"},
		{"item":"tardis:mercury_bottle"},
		{"item":"minecraft:gold_ingot"}
	],
	"result":{
		"item":"tardis:artron_capacitor"
	}
}