{
	"credit": "Made with Blockbench",
	"texture_size": [32, 32],
	"textures": {
		"7": "tardis:item/sonics/mk2_end"
	},
	"elements": [
		{
			"name": "octagon",
			"from": [3.34055, 2.59631, 14.92767],
			"to": [3.96188, 4.09634, 15.55072],
			"rotation": {"angle": 45, "axis": "z", "origin": [8, 7.69511, 10.79022]},
			"faces": {
				"north": {"uv": [0, 0, 1, 2], "texture": "#7"},
				"east": {"uv": [1, 1, 2, 3], "texture": "#7"},
				"south": {"uv": [0, 2, 1, 4], "texture": "#7"},
				"west": {"uv": [2, 2, 3, 4], "texture": "#7"},
				"up": {"uv": [2, 1, 1, 0], "texture": "#7"},
				"down": {"uv": [1, 4, 0, 5], "texture": "#7"}
			}
		},
		{
			"name": "octagon",
			"from": [7.68933, 0.79498, 14.92767],
			"to": [8.31067, 2.29502, 15.55072],
			"rotation": {"angle": 0, "axis": "y", "origin": [8, 7.69511, 10.79022]},
			"faces": {
				"north": {"uv": [2, 0, 3, 2], "texture": "#7"},
				"east": {"uv": [1, 3, 2, 5], "texture": "#7"},
				"south": {"uv": [3, 3, 4, 5], "texture": "#7"},
				"west": {"uv": [3, 0, 4, 2], "texture": "#7"},
				"up": {"uv": [3, 5, 2, 4], "texture": "#7"},
				"down": {"uv": [6, 2, 5, 3], "texture": "#7"}
			}
		},
		{
			"name": "octagon",
			"from": [2.90119, 3.03566, 14.92767],
			"to": [4.40123, 3.65699, 15.55072],
			"rotation": {"angle": 45, "axis": "z", "origin": [8, 7.69511, 10.79022]},
			"faces": {
				"north": {"uv": [3, 2, 5, 3], "texture": "#7"},
				"east": {"uv": [0, 6, 1, 7], "texture": "#7"},
				"south": {"uv": [4, 4, 6, 5], "texture": "#7"},
				"west": {"uv": [1, 6, 2, 7], "texture": "#7"},
				"up": {"uv": [6, 1, 4, 0], "texture": "#7"},
				"down": {"uv": [6, 1, 4, 2], "texture": "#7"}
			}
		},
		{
			"name": "octagon",
			"from": [7.24998, 1.23433, 14.92767],
			"to": [8.75002, 1.85567, 15.55072],
			"rotation": {"angle": 0, "axis": "y", "origin": [8, 7.69511, 10.79022]},
			"faces": {
				"north": {"uv": [4, 3, 6, 4], "texture": "#7"},
				"east": {"uv": [2, 6, 3, 7], "texture": "#7"},
				"south": {"uv": [0, 5, 2, 6], "texture": "#7"},
				"west": {"uv": [3, 6, 4, 7], "texture": "#7"},
				"up": {"uv": [4, 6, 2, 5], "texture": "#7"},
				"down": {"uv": [6, 5, 4, 6], "texture": "#7"}
			}
		},
		{
			"name": "octagon",
			"from": [5.69272, 2.06559, 15.88848],
			"to": [6.00039, 2.80838, 16.13544],
			"rotation": {"angle": 45, "axis": "z", "origin": [8, 4.59043, 12.86516]},
			"faces": {
				"north": {"uv": [4, 6, 5, 7], "texture": "#7"},
				"east": {"uv": [5, 6, 6, 7], "texture": "#7"},
				"south": {"uv": [6, 6, 7, 7], "texture": "#7"},
				"west": {"uv": [6, 0, 7, 1], "texture": "#7"},
				"up": {"uv": [7, 2, 6, 1], "texture": "#7"},
				"down": {"uv": [7, 2, 6, 3], "texture": "#7"}
			}
		},
		{
			"name": "octagon",
			"from": [7.84616, 1.1736, 15.88848],
			"to": [8.15384, 1.9164, 16.13544],
			"rotation": {"angle": 0, "axis": "y", "origin": [8, 4.59043, 12.86516]},
			"faces": {
				"north": {"uv": [6, 3, 7, 4], "texture": "#7"},
				"east": {"uv": [6, 4, 7, 5], "texture": "#7"},
				"south": {"uv": [6, 5, 7, 6], "texture": "#7"},
				"west": {"uv": [0, 7, 1, 8], "texture": "#7"},
				"up": {"uv": [2, 8, 1, 7], "texture": "#7"},
				"down": {"uv": [3, 7, 2, 8], "texture": "#7"}
			}
		},
		{
			"name": "octagon",
			"from": [5.47516, 2.28315, 15.88848],
			"to": [6.21795, 2.59082, 16.13544],
			"rotation": {"angle": 45, "axis": "z", "origin": [8, 4.59043, 12.86516]},
			"faces": {
				"north": {"uv": [3, 7, 4, 8], "texture": "#7"},
				"east": {"uv": [4, 7, 5, 8], "texture": "#7"},
				"south": {"uv": [5, 7, 6, 8], "texture": "#7"},
				"west": {"uv": [6, 7, 7, 8], "texture": "#7"},
				"up": {"uv": [8, 8, 7, 7], "texture": "#7"},
				"down": {"uv": [8, 0, 7, 1], "texture": "#7"}
			}
		},
		{
			"name": "octagon",
			"from": [7.6286, 1.39116, 15.88848],
			"to": [8.3714, 1.69884, 16.13544],
			"rotation": {"angle": 0, "axis": "y", "origin": [8, 4.59043, 12.86516]},
			"faces": {
				"north": {"uv": [7, 1, 8, 2], "texture": "#7"},
				"east": {"uv": [7, 2, 8, 3], "texture": "#7"},
				"south": {"uv": [7, 3, 8, 4], "texture": "#7"},
				"west": {"uv": [7, 4, 8, 5], "texture": "#7"},
				"up": {"uv": [8, 6, 7, 5], "texture": "#7"},
				"down": {"uv": [8, 6, 7, 7], "texture": "#7"}
			}
		},
		{
			"name": "octagon",
			"from": [4.88205, 2.2485, 15.56815],
			"to": [5.29783, 3.25227, 15.93158],
			"rotation": {"angle": 45, "axis": "z", "origin": [8, 5.66045, 11.74498]},
			"faces": {
				"north": {"uv": [0, 8, 1, 9], "texture": "#7"},
				"east": {"uv": [1, 8, 2, 9], "texture": "#7"},
				"south": {"uv": [2, 8, 3, 9], "texture": "#7"},
				"west": {"uv": [3, 8, 4, 9], "texture": "#7"},
				"up": {"uv": [5, 9, 4, 8], "texture": "#7"},
				"down": {"uv": [6, 8, 5, 9], "texture": "#7"}
			}
		},
		{
			"name": "octagon",
			"from": [7.79211, 1.04311, 15.56815],
			"to": [8.20789, 2.04689, 15.93158],
			"rotation": {"angle": 0, "axis": "y", "origin": [8, 5.66045, 11.74498]},
			"faces": {
				"north": {"uv": [6, 8, 7, 9], "texture": "#7"},
				"east": {"uv": [7, 8, 8, 9], "texture": "#7"},
				"south": {"uv": [8, 8, 9, 9], "texture": "#7"},
				"west": {"uv": [8, 0, 9, 1], "texture": "#7"},
				"up": {"uv": [9, 2, 8, 1], "texture": "#7"},
				"down": {"uv": [9, 2, 8, 3], "texture": "#7"}
			}
		},
		{
			"name": "octagon",
			"from": [4.58805, 2.5425, 15.56815],
			"to": [5.59182, 2.95828, 15.93158],
			"rotation": {"angle": 45, "axis": "z", "origin": [8, 5.66045, 11.74498]},
			"faces": {
				"north": {"uv": [8, 3, 9, 4], "texture": "#7"},
				"east": {"uv": [8, 4, 9, 5], "texture": "#7"},
				"south": {"uv": [8, 5, 9, 6], "texture": "#7"},
				"west": {"uv": [8, 6, 9, 7], "texture": "#7"},
				"up": {"uv": [9, 8, 8, 7], "texture": "#7"},
				"down": {"uv": [1, 9, 0, 10], "texture": "#7"}
			}
		},
		{
			"name": "octagon",
			"from": [7.49811, 1.33711, 15.56815],
			"to": [8.50189, 1.75289, 15.93158],
			"rotation": {"angle": 0, "axis": "y", "origin": [8, 5.66045, 11.74498]},
			"faces": {
				"north": {"uv": [1, 9, 2, 10], "texture": "#7"},
				"east": {"uv": [2, 9, 3, 10], "texture": "#7"},
				"south": {"uv": [3, 9, 4, 10], "texture": "#7"},
				"west": {"uv": [4, 9, 5, 10], "texture": "#7"},
				"up": {"uv": [6, 10, 5, 9], "texture": "#7"},
				"down": {"uv": [7, 9, 6, 10], "texture": "#7"}
			}
		}
	],
	"display": {
		"thirdperson_righthand": {
			"rotation": [90, 0, 0],
			"translation": [0, 0, 3],
			"scale": [0.5, 0.5, 0.5]
		},
		"thirdperson_lefthand": {
			"rotation": [90, 0, 0],
			"translation": [0, 0, 3],
			"scale": [0.5, 0.5, 0.5]
		},
		"firstperson_righthand": {
			"rotation": [90, 0, 30]
		},
		"firstperson_lefthand": {
			"rotation": [90, 0, 30]
		},
		"fixed": {
			"rotation": [90, 45, 0],
			"translation": [1.25, -1.75, 6]
		},
		"ground": {
			"translation": [0, 4, 0]
		},
		"gui": {
			"rotation": [90, 0, 30],
			"translation": [-3, 8, 0]
		}
	}
}