{
	"lines":[
		"Flight Hazards (cont.)",
		"",
		"Dimensional Drift",
		" Sometimes your Timeship may drift off course during flight.",
		"Use the dimension control to realign the Timeship's destination dimension."
	]
}