{
	"lines":[
		"Flight Hazards (cont.)"
		,""
		,"The Time Ram has two subevents sent to different pilots."
		,""
		," Both events need to be successfully completed to avoid consequences."
		," -Instigate"
		," -Receive"
	]
}